[gd_resource type="Resource" script_class="PlayerMovementData" load_steps=2 format=3 uid="uid://cnrbyxb5l148t"]

[ext_resource type="Script" path="res://src/scripts/player_movement_data.gd" id="1_kkque"]

[resource]
script = ExtResource("1_kkque")
name = "slower"
speed = 50.0
jump_velocity = -250.0
small_jump_velocity = -100
friction = 800
acceleration = 600
gravity_scale = 1.0
air_resistance = 200
